<svg xmlns="http://www.w3.org/2000/svg" width="54" height="53" viewBox="0 0 54 53">
    <g fill="none" fill-rule="evenodd">
        <path fill="#FAFFA6" d="M37.976.275c12.091 2.948 16.013 1.797 16.013 15.807 0 2.023-.27 9.91-3.462 13.826-4.759 5.837-13.773 8-20.033 10.264-2.434.88 1.394-4.208-1.5-5.529-.928-.424-9.778 8.827-9.364 7.507.473-1.512-1.535-4.015-6.023-7.507-1.876-1.656-2.475-3.234-1.798-4.735 1.916-4.244 5.479-6.377 5.643-7.438.498-3.21-9.371 4.65-10.393 3.112-.455-.684 1.728-4.75 6.548-12.198C23.856 3.182 31.979-1.187 37.976.275z"/>
        <path fill="#000" fill-rule="nonzero" d="M44.785 5.045c-2.02.374-4.006 1.137-5.983 1.7-2.018.575-4.02 1.387-5.972 2.154-1.017.4-2.157.807-3.093 1.373-.813.492-1.492 1.234-2.153 1.905-1.729 1.755-3.59 3.36-5.318 5.115a85.324 85.324 0 0 0-4.2 3.815.275.275 0 0 0-.11-.108c-3.537-1.904-6.664.941-9.375 2.98-1.522 1.144-2.942 2.419-4.407 3.632-.797.66-1.597 1.271-2.32 2.017-.428.44-.823.838-.766 1.492.057.654.514 1.2.897 1.7.444.581.903 1.365 1.5 1.805 1.249.92 2.271-.205 3.254-.969 1.338-1.04 2.457-2.339 3.612-3.57l.085-.09c.013.748.466 1.435.971 2.106-.345.12-.684.46-.925.654-1.088.872-2.097 1.803-3.012 2.858-.576.663-2.347 2.671-.568 2.985.494.086.987-.084 1.467-.179.32-.063 1.026-.18 1.33-.028.29.145.127.306-.031.613-.163.316-.845.742-1.089.924-.527.393-1.07.763-1.59 1.167-.555.431-3.504 2.724-1.49 3.185.64.147 1.066-.18 1.588.332.539.529.067.637-.382 1.052-.275.254-.575.493-.861.735-1.072.907-2.183 1.77-3.21 2.727-.445.413-3.642 3.226-2.183 3.819.707.287 2.03-.647 2.582-.939 1.274-.674 2.557-1.312 3.783-2.075 2.194-1.365 4.349-2.927 6.23-4.704.437-.412 1.387-1.202 1.049-1.915-.296-.626-1.165-.557-1.7-.757-.496-.185-.43-.14-.198-.572.224-.42.86-.74 1.251-.94.59-.302 1.235-.484 1.84-.752.914-.405 1.414-.826 1.866-1.57.241.22.488.436.747.637.683.527 1.34 1.139 2.104 1.557a41.51 41.51 0 0 0-.785.736c-.947.917-1.994 1.74-2.864 2.728-.783.89-.249 1.681.468 2.446.73.778 1.597 1.901 2.621 2.29 1.308.497 2.647-.501 3.656-1.227 2.268-1.632 3.999-3.827 5.181-6.343.64-1.362 1.377-2.642 1.77-4.107.41-1.533.212-3.114-.108-4.642-.002-.01-.006-.018-.009-.028 2.599-2.658 5.048-5.44 7.574-8.178 1.532-1.66 3.146-3.257 4.734-4.863.643-.65 1.104-.98 1.338-1.855.277-1.031.455-2.083.671-3.128.485-2.341.98-4.68 1.454-7.024.245-1.214.981-3.029-.921-2.676zM20.17 20.705c2.833-2.812 5.78-5.498 8.616-8.305.754-.747 1.614-1.284 2.528-1.73-.101.642-.049 1.325.108 1.695.286.674.872 1.107 1.578 1.232.28.05.522.055.747.033-.174.126-.34.246-.47.36-.408.36-.787.746-1.165 1.135a95.242 95.242 0 0 1-2.863 2.794c-1.824 1.725-3.64 3.453-5.455 5.188a234.096 234.096 0 0 0-5.386 5.31c-.885.902-1.767 1.808-2.656 2.705-.7.706-1.536 1.36-2.23 2.09-.684-.779-1.334-1.585-1.788-2.47-.437-.856-.001-1.606.58-2.268 2.765-2.413 5.258-5.189 7.856-7.769zm14.53-7.32l.138-.05c.01.724.135 1.4.722 1.972.377.367.897.577 1.412.66.233.036.434.019.627-.017-3.873 3.376-7.595 6.947-11.4 10.396-3.501 3.173-6.752 6.537-9.863 10.074a19.615 19.615 0 0 1-1.066-1.21c-.397-.493-.838-.98-1.281-1.472.699-.743 1.547-1.406 2.258-2.121.937-.943 1.866-1.897 2.793-2.85 1.859-1.908 3.766-3.744 5.684-5.593 1.869-1.802 3.759-3.583 5.62-5.391a87.129 87.129 0 0 0 2.787-2.848c.418-.445 1.163-.96 1.569-1.55zM8.31 30.891a27.674 27.674 0 0 1-1.586 1.495c-.5.44-1.207 1.161-1.815 1.454-.856.412-1.285-.48-1.772-1.1-.42-.535-1.176-1.206-.96-1.896.2-.644 1.18-1.33 1.692-1.733a57.772 57.772 0 0 0 1.792-1.468c1.254-1.072 2.528-2.13 3.85-3.119 1.236-.925 2.465-1.873 3.82-2.625.967-.538 1.774-.72 2.882-.53.499.085.896.208 1.38.193-.905.885-1.795 1.784-2.676 2.691-.785.81-1.656 1.632-2.46 2.496-1.452 1.303-2.801 2.757-4.147 4.142zm6.113 8.976c-.859.342-1.666.623-2.366 1.247-1.028.917-1.238 1.832.268 2.159.245.053.738.049.91.234.343.37-.375.924-.688 1.222-.955.911-2.006 1.752-3.05 2.559-1.894 1.465-3.928 2.726-6.044 3.841-.477.252-.946.521-1.432.756-.242.117-1.026.675-1.024.234.002-.227.083-.221.18-.395.55-.995 1.66-1.868 2.5-2.61.867-.764 1.765-1.488 2.641-2.24.606-.519 1.67-1.209 1.833-2.066.112-.596-.287-.902-.808-1.045-.417-.115-.92.037-1.307-.083-.83-.257-.138-.754.281-1.15.893-.844 1.933-1.503 2.902-2.252.492-.38 1.363-.98 1.5-1.657.35-1.726-2.739-.478-3.423-.713-.974-.335 1.346-2.595 1.765-3.017.252-.255 2.337-2.362 2.542-2.267.077.036.15.037.216.018.075.1.15.199.221.298 1.085 1.5 2.373 2.983 3.652 4.32.304.32.612.639.926.95-.526.854-1.221 1.268-2.195 1.657zm14.468-2.066c-.426 1.351-1.134 2.616-1.766 3.883-.638 1.279-1.451 2.481-2.468 3.489-1.091 1.083-2.523 2.693-4.107 3.031-.938.2-1.517-.562-2.13-1.135-.341-.32-1.487-1.252-1.471-1.735.02-.628.931-1.08 1.346-1.441.986-.858 1.846-1.842 2.883-2.637 1.228-.943 2.246-2.042 3.317-3.137 1.12-1.146 2.283-2.25 3.438-3.359.392-.376.778-.757 1.162-1.14.199 1.443.253 2.73-.204 4.181zM39.59 20.98c-2.927 2.91-5.541 6.092-8.414 9.049-2.62 2.697-5.42 5.222-8 7.955l-.364.378-.13.125c-.605.57-1.226 1.12-1.844 1.674a1.089 1.089 0 0 1-.112-.033c-.49-.176-.881-.575-1.276-.895-.92-.745-1.801-1.499-2.629-2.316 1.361-1.411 2.631-2.934 3.966-4.375 1.86-2.006 3.876-3.868 5.901-5.705a496.625 496.625 0 0 0 6.123-5.62c1.7-1.595 3.464-3.115 5.062-4.81-.052.99.123 2.006.766 2.792.45.55 1.14.824 1.847.861-.296.31-.593.618-.896.92zm4.413-10.062c-.404 1.95-.738 3.924-1.2 5.86-.202.849-.377 1.331-1.01 1.946l-.313.314c-1.132.144-2.056-.064-2.457-1.27-.279-.835-.237-1.475-.056-2.33.062-.294-.135-.62-.463-.609-.816.03-1.526.47-2.253-.214-.602-.565-.497-1.185-.484-1.92.005-.29-.298-.531-.58-.443-.998.313-2.121 1.108-2.924-.13-.189-.292-.326-1.151-.198-1.793.592-.254 1.2-.484 1.814-.72 1.754-.67 3.55-1.43 5.366-1.909.766-.201 1.525-.451 2.284-.7a3.84 3.84 0 0 0 .967 1.684c.506.51 1.135.708 1.805.789l-.298 1.445zm.973-4.782c-.15.484-.2 1.02-.3 1.515l-.247 1.197c-.628-.054-1.196-.224-1.675-.729-.352-.37-.578-.81-.78-1.264.853-.276 1.71-.54 2.578-.72.076-.017.35-.106.467-.16l-.043.16z"/>
    </g>
</svg>
