<svg xmlns="http://www.w3.org/2000/svg" width="68" height="64" viewBox="0 0 68 64">
    <g fill="#000" fill-rule="nonzero">
        <path d="M45.29 54.495c.514-.394.955-.784 1.282-1.13 5.226-5.523 6.86-11.847 7.08-19.375.382-13.09-9.06-24.743-22.302-22.821-12.654 1.835-21.086 15.177-19.622 27.493.848 7.128 5.486 12.589 11.425 15.615l-.078.09-.01-.002c-.641-.026-1.186.922-1.499 1.38a10.824 10.824 0 0 0-1.439 3.067c-.366 1.276-.11 3.57 1.549 3.713 1.368.117 2.383-2.111 2.876-3.078.395-.775.737-1.578 1.07-2.382.183-.445.529-.999.346-1.49-.012-.033-.032-.06-.05-.09 3.694 1.336 7.705 1.8 11.545 1.184.03-.005.038-.033.064-.042 1.037.618 2.416.505 3.807.038.002.008-.004.015 0 .022.754 1.849 4.422 7.564 6.815 4.723.973-1.155-.01-3.052-.603-4.136-.33-.602-1.334-2.59-2.256-2.779zm-7.396.91c-.385-.237-.716-.016-.833.302-10.11.206-18.964-3.565-23.076-13.592-4.15-10.123 1.73-20.815 9.898-26.445 10.718-7.388 22.57-2.096 27.07 9.61 2.132 5.542 1.478 12.036.273 17.679-.746 3.49-7.978 15.73-13.332 12.445zM22.962 9.837c-1.38-5.202-8.563-5.722-11.884-2.095-2.36 2.578-2.541 9.953 2.012 9.946-.006.034-.022.067-.027.101-.076.558.605.935.931.4 1.34-2.194 3.256-3.667 5.316-5.133.702-.5 2.484-1.383 3.195-2.409.314-.097.568-.394.457-.81zm-5.69 3.04c-1.24.926-2.995 2.175-3.797 3.717-3.392-.916-3.409-5.373-1.45-7.888 2.332-2.996 8.047-2.534 9.466 1-1.445.964-2.841 2.14-4.22 3.17zM53.053 4.907c-1.984-.4-10.18 1.228-7.814 4.322-.007.14.026.285.156.375 2.954 2.037 5.826 4.076 8.49 6.508.17.156.362.196.54.169a.596.596 0 0 0 .513-.074c4.713-2.867 3.685-10.175-1.885-11.3zm1.463 9.962c-2.54-2.279-5.342-4.59-8.504-5.874-.305-2.477 4.697-2.88 6.282-2.815 1.932.08 3.632 1.773 4.243 3.546.716 2.078-.442 3.945-2.021 5.143z"/>
        <path d="M42.196 24.786c-.843.168-1.56 1.304-2.103 1.907a88.2 88.2 0 0 0-3.401 4.015c-.256.322-1.559 1.757-2.326 3.045-.076-.025-.142-.068-.22-.087-.03-.12-.096-.23-.222-.264-1.05-.278-1.94.093-2.527.748-1.529-1.193-3.174-2.288-4.61-3.592-2.196-1.995-4.319-4.168-6.773-5.838-.385-.262-.794.315-.483.638 2.228 2.313 4.572 4.545 6.936 6.714 1.204 1.105 2.68 2.616 4.258 3.595-.067.607.042 1.25.426 1.846 1.394 2.156 5.26.7 4.824-1.884a2.418 2.418 0 0 0-.544-1.151c.18-.259.341-.495.41-.59.882-1.23 1.873-2.384 2.845-3.542.838-1.001 1.699-1.983 2.575-2.95.493-.543 1.265-1.1 1.555-1.788.193-.456-.117-.922-.62-.822zM32.203 15.886c-.016.688-.134 1.378-.219 2.06-.064.515-.234 1.217.145 1.655-.004.037-.002.074-.006.112-.058.532.77.62.897.124.33-1.282.379-2.633.436-3.95.036-.823-1.234-.824-1.253 0zM18.31 36.948c-1.337.053-2.668-.133-4.004-.07-.55.026-.546.806-.02.869a.491.491 0 0 0 .17.498.768.768 0 0 0 .576.167c-.166.054.332-.001.431-.01.356-.036.713-.064 1.07-.09.59-.047 1.185-.101 1.778-.116.788-.02.788-1.279 0-1.248zM34.146 50.073c-.046-.605-1.018-.836-1.111-.154-.007.052-.004.104-.01.155a.08.08 0 0 1-.01-.001c-.011.145-.012.29-.02.435-.02.27-.04.536-.035.806-.01.273-.02.546-.037.82-.016.271-.065.543-.11.815-.175.31-.128.722-.125 1.091-.003.424.32.634.642.632.323.002.645-.208.642-.632 0-.107.02-.218.028-.327a.167.167 0 0 0 .008-.094c.008-.077.01-.152.02-.229.01-.062.023-.131.03-.198.002-.022-.003-.048-.002-.071.035-.233.071-.467.088-.694.055-.779.061-1.575.002-2.354zM50.499 36.671c-.353-.334-.937-.352-1.508-.396-.796-.062-1.596-.133-2.393-.139-.344-.003-.54.217-.606.477-.049-.006-.097-.007-.145-.015-.514-.068-.611.791-.122.91 1.292.311 2.565.316 3.876.155.037-.004.064-.02.096-.03.202-.005.407-.01.563-.042a2.392 2.392 0 0 0-.014-.034c.366-.108.613-.543.253-.886zM29.594 7.562c-.495-1.1-1.207-2.064-1.865-3.065-.582-.886-1.4-2.022-1.27-3.153.04-.35-.447-.513-.663-.28-.784.85-.08 2.045.4 2.874.817 1.411 1.902 2.638 2.86 3.944.24.328.707.056.538-.32zM32.366 4.055c-.023-.84.064-1.752-.133-2.57-.097-.403-.719-.415-.81 0-.157.724-.004 1.473.076 2.203.11 1.004.22 2.007.305 3.013.03.358.525.363.55 0 .057-.882.037-1.762.012-2.646zM37.125.211c-.788.434-.958 1.68-1.189 2.486-.368 1.288-.701 2.659-.76 4.005-.02.467.695.564.8.11.27-1.181.547-2.346.906-3.505.27-.876.858-1.813.87-2.728.005-.332-.355-.517-.627-.368zM9.362 21.69c-.742-.685-1.621-1.217-2.396-1.864a9.786 9.786 0 0 1-.932-.887c-.243-.263-.387-.61-.649-.85-.257-.234-.723-.163-.807.217-.187.842.7 1.55 1.254 2.027.897.77 1.93 1.555 2.993 2.067.43.207.934-.345.537-.71zM7.251 25.733c-1.074-.483-2.287-.775-3.412-1.12-.325-.1-.817-.18-1.09.102-.257.265-.126.61.177.745-.067-.016-.072-.031.056.046.138.082.27.145.427.18.37.083.739.183 1.107.279.804.209 1.694.544 2.53.54.377 0 .591-.598.205-.772zM6.295 33.197c-1.153.034-2.298.292-3.433.486-.819.14-2.053.032-2.712.604-.214.187-.185.551 0 .742.323.331.844.206 1.248.142.17-.027.252-.173.275-.331.132-.016.25-.03.318-.045.494-.103.985-.221 1.476-.336.968-.227 1.948-.416 2.905-.686.31-.087.252-.586-.077-.576zM7.367 46.698c-.918.466-1.799.925-2.772 1.277-.599.217-1.24.338-1.765.71-.33.234-.226.79.21.792.709.005 1.37-.356 2.013-.63.91-.39 2.069-.815 2.745-1.58.277-.31-.068-.754-.431-.57zM9.665 50.859c-.87.626-1.476 1.75-1.995 2.67-.589 1.045-1.319 2.61-.842 3.82.195.494.95.462.954-.133.01-1.31.256-2.31.85-3.489.434-.86 1.117-1.643 1.425-2.561.073-.218-.202-.444-.392-.307zM32.31 60.26c-.503.535-1.253 1.232-1.495 1.953-.202.6.146 1.058.763 1.02.404-.024.53-.608.156-.758.028-.058.054-.117.088-.173.094-.171.213-.331.326-.49.253-.362.534-.703.76-1.083.223-.377-.297-.788-.598-.47zM38.531 63.256c-.435-.32-.892-.58-1.268-.978-.47-.498-.68-1.187-.848-1.838-.096-.372-.718-.306-.674.093.157 1.44.95 3.147 2.494 3.44.439.084.654-.455.296-.717zM55.408 51.437c-.874-.648-2.025-1.253-3.122-.853-.263.096-.238.53.069.518 1.215-.047 2.069.493 2.924 1.336.556.549.957 1.42 1.628 1.818.31.184.68-.117.594-.465-.233-.926-1.374-1.822-2.093-2.354zM67.374 43.772c-3.377-.217-6.624-1.971-10.013-1.7-.433.035-.443.684 0 .694 2.104.053 3.98.738 5.954 1.4 1.344.449 2.779.866 4.173.457.475-.14.358-.82-.114-.85zM65.173 31.613c-1.076.831-2.028 1.499-3.32 1.968-.994.36-2.022.494-3.05.706-.212.044-.222.41 0 .447 2.093.34 5.714-.684 6.909-2.572.204-.323-.218-.796-.539-.55zM65.402 24.687c-.92.6-1.685 1.412-2.609 2.022-1.091.72-2.291 1.18-3.531 1.555-.483.146-.279.849.205.757 2.266-.429 5.19-1.734 6.532-3.726.248-.37-.238-.842-.597-.608zM64.089 21.118c-1.163-.758-3.522.43-4.544 1.031-1.207.71-2.2 1.91-1.431 3.325.185.34.637.041.497-.296-.531-1.281 1.255-2.16 2.157-2.542a9.07 9.07 0 0 1 1.79-.527c.46-.091.987-.02 1.427-.184.351-.132.435-.591.104-.807z"/>
    </g>
</svg>
