<svg xmlns="http://www.w3.org/2000/svg" width="52" height="68" viewBox="0 0 52 68">
    <g fill="#000" fill-rule="nonzero">
        <path d="M20.32 33.049c-2.096-1.655-11.364-3.931-9.428-7.958.167-.347-.299-.62-.519-.301-1.517 2.202-.11 4.357 1.994 5.562 2.404 1.376 6.951 1.538 8.42 4.286 2.2 4.12-1.488 11.042-6.13 11.853-.323.056-.253.614.077.574 3.993-.476 7.333-5.26 8.019-8.994.432-2.357-.595-3.57-2.433-5.022z"/>
        <path d="M34.452 2.458c.66-.7.341-1.947-.587-2.319-1.233-.494-2.277.404-2.713 1.48a25.836 25.836 0 0 0-4.707-.408c-.254.002-.382.194-.391.39-.62.348-.534 1.695-.18 2.175a.338.338 0 0 0 .265.13.346.346 0 0 0 .156.077c1.258.252 2.448.59 3.607.967-.55 1.35-1.135 2.665-1.857 3.935a21.96 21.96 0 0 0-2.021-.359C15.373 7.196 4.023 13.186 1.19 23.529l-.133-.01c-.144-.01-.138.205 0 .221.022.002.043.006.065.009a18.613 18.613 0 0 0-.47 2.398 23.288 23.288 0 0 0-.14 1.602c-.045-.003-.09-.004-.135-.008-.252-.02-.25.37 0 .39.04.004.082.01.123.013-.06 1.569.021 3.152.243 4.723-.25.086-.234.496.077.51 1.31 8.143 6.36 15.793 14.125 18.56-.14.323-.26.657-.403.963a22.074 22.074 0 0 1-1.01 1.906 46.776 46.776 0 0 1-3.06-.929c-.18-.062-.29.059-.31.201-.767.287-1.327 1.234-.809 1.978.165.235.643.186.607-.164-.056-.529.009-1.094.605-1.274.057-.017.079-.058.114-.09 16.881 6.74 35.677 1.054 38.402-18.378C51.236 20.786 42.98 5.29 26.429 3.178c-.025-.243-.017-.485.09-.717.078-.167.156-.288.201-.43 19.525-.023 27.134 21.53 22.937 37.83-4.417 17.15-21.318 23.219-36.86 17.592-.042-.115-.183-.168-.298-.113a36.267 36.267 0 0 1-2.56-1.058c-.291-.134-.54.266-.256.435.786.467 1.6.878 2.43 1.256a33.79 33.79 0 0 0-1.644 3.482c-1.34-.088-2.789.317-3.758 1.228-.891.838-1.57 2.39-.803 3.508.142.207.5.153.516-.117 1.421 2.035 4.536 1.593 6.942 1.694 6.827.287 13.669.18 20.488-.24a.438.438 0 0 0 .388-.27c2.019-.78 2.466-3.448.853-4.976a.451.451 0 0 0-.43-.12c-.035-.011-.054-.042-.096-.045-7.215-.34-14.38.543-21.575-.327.611-.903 1.154-1.858 1.7-2.803 6.807 2.282 14.575 1.917 21.27-.584 7.91-2.956 12.584-10.438 14.61-18.29 3.791-14.691-1.7-32.816-16.122-37.655zM14.54 50.486c1.727.09 3.41.378 5.109.682.212.038.305-.266.09-.327-1.694-.483-3.453-.658-5.21-.714-.169-.006-.21.18-.133.286a27.782 27.782 0 0 1-3.027-1.784c2.53.505 5.092.878 7.65 1.195.172.022.213-.271.042-.302-2.686-.49-5.394-.93-8.112-1.202a22.22 22.22 0 0 1-3.552-3.106c1.38.3 2.762.602 4.156.835.25.042.364-.324.107-.389-1.581-.395-3.186-.7-4.785-1.019a21.909 21.909 0 0 1-1.51-1.981c1.247.196 2.519.314 3.773.397.154.01.193-.25.037-.272-1.322-.197-2.67-.37-4.009-.435a22.059 22.059 0 0 1-2.63-5.584c1.363.157 2.715.354 4.073.562.247.038.359-.311.106-.382-1.407-.392-2.88-.604-4.343-.702a24.09 24.09 0 0 1-.602-2.785c1.321.096 2.63.278 3.932.542.316.064.449-.393.134-.485-1.362-.401-2.752-.588-4.161-.653-.075-.541-.118-1.1-.16-1.658a.2.2 0 0 0 .145.097c.918.156 1.835.34 2.76.441.256.028.309-.388.061-.445-.887-.201-1.793-.322-2.69-.47-.15-.024-.257.075-.294.19a25.919 25.919 0 0 1-.057-2.644c.001-.045.008-.088.01-.133.692.076 1.392.144 2.068.092.152-.012.203-.238.038-.278-.667-.163-1.374-.21-2.076-.248.048-.766.152-1.508.285-2.235.66.022 1.319.044 1.979.016.118-.005.118-.177 0-.182a25.573 25.573 0 0 0-1.953.015c.1-.527.243-1.032.386-1.538.745.098 1.491.194 2.238.25.226.017.216-.32 0-.346a39.081 39.081 0 0 0-2.167-.186c.151-.508.325-1.004.516-1.49.926.016 1.846.05 2.772.1.289.016.358-.451.07-.506-.85-.164-1.724-.197-2.592-.16.189-.435.414-.847.632-1.263.63.011 1.218.174 1.787.478.227.12.416-.204.201-.342a3.41 3.41 0 0 0-1.784-.543c.375-.675.782-1.328 1.242-1.942 2.732 4.156-1.155 9.541 1.06 14.082 2.546 5.217 5.611 9.166 6.687 15.123.087.486.808.273.737-.203-.375-2.5-.957-4.863-1.942-7.203-1.11-2.64-3.424-4.847-4.425-7.438-1.838-4.757 1.6-10.775-1.793-14.758 3.224-4.062 8.09-6.76 13.418-7.669-.025.101-.027.211.023.326 1.778 4.1 1.022 8.592-3.06 10.85-1.693.938-3.292 1.497-4.5 3.071-.116.152.134.337.263.202 2.45-2.558 6.235-2.34 8.154-5.61 1.642-2.798 1.42-6.149-.016-8.967a23.676 23.676 0 0 1 6.238-.01c3.058.408 5.695 1.413 7.926 2.865-1.386.207-2.774 1.233-3.547 2.225-.181.233.122.563.335.334.61-.654 1.335-1.16 2.183-1.462.686-.244 1.384-.231 2.08-.361 2.492 1.894 4.41 4.392 5.756 7.264-3.271.345-15.068.986-11.204-4.474.182-.258-.217-.55-.432-.332-1.48 1.498-1.192 4.04.755 5.015 3.092 1.549 7.827.987 11.148.405a24.508 24.508 0 0 1 1.237 3.574c-4.512-.203-9.728-4.263-14.123-1.493-2.556 1.612-2.062 5.122.455 6.578.215.124.438-.164.264-.341-2.336-2.384-1.257-6.053 2.354-6.341 1.522-.121 2.991.277 4.428.71 2.275.686 4.369 1.449 6.764 1.475.514 2.177.782 4.462.774 6.797-.016 4.359-2.1 8.572-5.265 12.01-4.37-.36-1.956-7.413-2.944-10.144-.796-2.2-2.696-2.511-4.526-3.614-.28-.169-.63.254-.36.464 1.53 1.185 3.333 1.407 4.16 3.409.842 2.037.002 4.268.165 6.376.149 1.928 1.032 3.83 3.005 4.037-4.825 4.949-11.89 8.14-18.063 7.537a.423.423 0 0 0-.317.09 31.564 31.564 0 0 1-3.113-1.206.23.23 0 0 0-.29-.128c-.345-.157-.666-.341-1.001-.512zm1.106 4.823c-.58-.125-1.16-.259-1.74-.408.427-.59.84-1.196 1.194-1.832.161-.29.343-.6.49-.923.443.14.896.263 1.353.377-.142.354-.248.733-.402 1.07a11.294 11.294 0 0 1-.863 1.54.234.234 0 0 0-.032.176zm32.455-19.474c-2.376 17.437-17.011 22.61-31.937 19.58.4-.537.76-1.098 1.06-1.696.163-.325.344-.678.451-1.04.372.077.743.159 1.127.209.06.188.213.35.46.375 10.763 1.05 24.363-8.93 24.854-20.12.451-10.256-4.07-20.095-13.525-23.518.367-.582.733-1.165 1.079-1.76.345-.595.75-1.203 1.01-1.848 11.517 5.065 17.221 16.613 15.421 29.818zM32.12 5.797c-.385.546-.694 1.162-1.004 1.745a55.286 55.286 0 0 0-.97 1.935 20.306 20.306 0 0 0-1.663-.494c.788-1.206 1.455-2.497 1.901-3.866.597.205 1.166.443 1.736.68zm1.714-3.66c-.038.026-.041.065-.064.098-.7-.21-1.419-.39-2.16-.538.312-.57.794-1.088 1.478-1.111.833-.028 1.578.956.746 1.55zm.496 60.725c.021.037.038.074.072.108 1.172 1.161.853 2.861-.459 3.665-.03-.004-.055-.015-.09-.013-4.094.235-8.188.413-12.29.44-2.66.018-12.068.833-14.649-1.312-.247 0-.348-.386-.247-.427-.045 0-.071.023-.1.04-.034-.045-.085-.084-.113-.132.038-.378.132-.73.284-1.058.176-.414 0-.225.248-.414.171-.241.374-.47.654-.673.872-.63 1.896-.782 2.9-1.048-.05.51.182 1.004.753 1.17.654.188 1.406-.261 1.44-.94 7.124 1.376 14.39.385 21.597.594zm-22.208-1.139c-.118.185-.055.354.073.457-.15.202-.326.364-.603.343-.318-.025-.538-.32-.541-.646.11-.075.143-.235.058-.328a33.484 33.484 0 0 0 1.46-3.364c.553.24 1.116.453 1.684.654-.734.942-1.49 1.88-2.13 2.884z"/>
        <path d="M5.027 17.502C.871 23.795-.07 30.183 2.201 36.665c2.272 6.482 6.216 11.368 11.832 14.657l6.143 1.016c1.221-.579.774-1.365-1.343-2.36-2.116-.993-4.174-2.305-6.173-3.934-1.14-3.89-2.12-6.77-2.939-8.64-.865-1.974-2.51-2.728-2.82-4.78-.62-4.117-.603-8.714-1.054-12.932-.062-.58-.335-1.31-.82-2.19z"/>
    </g>
</svg>
