<svg xmlns="http://www.w3.org/2000/svg" width="54" height="68" viewBox="0 0 54 68">
    <g fill="#000" fill-rule="nonzero">
        <path d="M53.861 63.842a69.368 69.368 0 0 0-.234-4.958c-.141-1.698-.195-3.552-.656-5.2-.443-1.587-1.827-2.464-3.082-3.424-3.017-2.308-5.94-4.82-9.162-6.854a.575.575 0 0 0-.21-.08c0-.054.002-.107 0-.16a.703.703 0 0 0-.067-.29 12.08 12.08 0 0 0 4.063-2.556 12.951 12.951 0 0 0 2.545-3.37c1.877 1.375 4.673-.23 5.398-2.157.755-2.008-.532-4.285-2.792-4.2-.343-1.749 1.601-3.171 1.794-4.942.13-1.187-.576-2.34-1.514-3.103-.188-.154-.392-.3-.516-.508-.136-.225-.163-.495-.206-.753-.254-1.516-1.207-2.906-2.543-3.711-.419-.253-.88-.457-1.216-.81-.411-.433-.575-1.03-.803-1.578-.987-2.374-3.496-4.062-6.114-4.114-1.217-.024-2.416.274-3.63.344-1.85.107-3.754-.309-5.53.205a5.387 5.387 0 0 0-3.126 2.425c-.395.677-.63 1.433-1.015 2.116-.718 1.275-2.178 1.658-3.208 2.655-.73.706-1.355 1.595-1.418 2.597-.018.282.009.574-.087.84-.114.318-.384.553-.624.795-.542.546-.981 1.207-1.168 1.946-.554 2.198 1.742 3.486 1.985 5.508-2.295-.062-3.74 2.22-2.976 4.292.674 1.825 3.228 3.467 5.073 2.114 1.214 2.605 3.942 4.461 6.736 5.577a3.932 3.932 0 0 0-.114.813c-2.843 1.754-5.608 3.72-8.31 5.674-1.094.79-2.21 1.625-2.923 2.783-.778 1.264-.932 2.825-1.13 4.257-.45 3.272-.865 6.547-1.33 9.817-.078.54-.14 1.108.253 1.557.484.552 1.273.509 1.95.529 1.715.05 3.431.09 5.147.08 6.803-.042 13.599-.13 20.403-.103a560.02 560.02 0 0 0 7.57-.007c.678-.003 1.388.043 1.965-.365 1.1-.782.836-2.536.822-3.681zm-4.18-32.452c1.577.046 2.305 1.95 1.52 3.215-.707 1.136-2.28 1.93-3.56 1.274a.627.627 0 0 0-.088-.035c.19-.503.34-1.016.435-1.535.005-.022.004-.043.006-.064a1.694 1.694 0 0 0 1.46-.743c.453-.652.335-1.386.228-2.112zm-27.494 4.44c-1.236.88-2.973.06-3.498-1.24-.59-1.457.448-3.092 1.996-3.295l-.004.028-.015.064a.363.363 0 0 0-.01.104c-.103.693-.19 1.389.243 2.011.324.468.79.7 1.271.738.02.519.1 1.015.225 1.49a.647.647 0 0 0-.208.1zm.531-2.654a.608.608 0 0 1-.29.106c-.289.027-.564-.162-.711-.407-.306-.506-.187-1.13-.132-1.681.083-.331.094-.664.052-.995a3.608 3.608 0 0 0-.044-.475c-.228-1.394-1.606-2.72-1.558-4.101.045-1.316 1.683-1.998 2.222-3.204.312-.697.234-1.535.639-2.185.64-1.03 2.18-1.147 2.985-2.06.541-.613.654-1.47.946-2.23.656-1.706 2.137-2.718 3.969-2.939 1.537-.184 3.1.07 4.641-.076 1.077-.1 2.14-.395 3.22-.345 1.436.067 2.791.75 3.855 1.696.374.334.724.708.939 1.157.385.804.326 1.81.912 2.488.449.52 1.167.715 1.764 1.065a3.565 3.565 0 0 1 1.611 2.062c.186.645.191 1.359.564 1.92.297.446.787.732 1.14 1.136a2.37 2.37 0 0 1 .567 1.807c-.113.99-.839 1.807-1.13 2.76-.3.986-.12 2.04-.06 3.067.02.352.023.721-.134 1.039-.157.317-.52.565-.87.482-.302-.071-.506-.364-.562-.663-.103-.546.152-1.076.025-1.632-.113-.494-.412-.9-.785-1.242-.841-.77-1.75-1.186-1.7-2.463.021-.544.17-1.075.223-1.616a4.608 4.608 0 0 0-.382-2.319c-.39-.87-1.205-1.681-2.174-1.618-.397.026-.768.197-1.127.364-2.74 1.275-5.307 2.527-8.418 1.68-1.59-.432-2.841-1.976-4.515-2.053-1.033-.047-2.021.594-2.543 1.47-.521.874-.623 1.942-.472 2.944.1.655.299 1.336.075 1.96-.428 1.196-2.202 1.632-2.41 2.883-.073.437.075.88.074 1.323 0 .337-.141.714-.406.895zm4.216 6.58c-1.943-1.374-3.39-3.34-3.94-5.633.603-.224 1.103-.741 1.204-1.451.068-.48-.193-1.122.061-1.56.215-.368.747-.658 1.075-.927.614-.504 1.212-1.08 1.434-1.86.318-1.118-.304-2.184-.176-3.298.052-.453.436-1.45.949-1.929.254-.165.507-.233.76-.23a.832.832 0 0 1 .293.193 6.248 6.248 0 0 0 3.344 1.694 8.234 8.234 0 0 0 4.12.604 11.256 11.256 0 0 0 2.798-.666c.862-.197 1.674-.619 2.367-1.165.368-.218.754-.443 1.177-.514.105-.018.202-.021.294-.014.57.424 1.01 1.54 1.066 2.027.128 1.114-.494 2.18-.176 3.298.222.78.82 1.356 1.434 1.86.328.27.86.56 1.075.928.254.437-.007 1.079.061 1.559.068.481.32.874.663 1.147a.725.725 0 0 0-.067.156c-.52 1.778-1.25 3.386-2.512 4.788-1.245 1.382-2.83 2.493-4.604 3.125-4.208 1.5-9.139.384-12.7-2.133zm7.237 13.332c-.137-.132-.215-.42-.3-.586-.404-.79-.863-1.555-1.303-2.327.082-.079.163-.16.245-.237.317-.298.638-.59.955-.887.19-.178.38-.355.573-.532.057-.052.185-.128.27-.196.095.103.245.225.268.25.156.163.31.328.465.494.338.365.672.734 1 1.108.08.09.158.183.236.275l-.005.01c-.216.443-.396.903-.587 1.358-.174.416-.306.906-.521 1.319-.337.033-.687-.02-1.018.036-.422.071-.1.088-.278-.085zm-.552-5.204c-.338.313-.67.632-.99.962a56.381 56.381 0 0 0-2.141 2.337c-.204-1.947-.38-3.897-.528-5.849.726 1.28 2.134 2.22 3.659 2.55zm-3.258-5.096c.424.148.847.279 1.262.393 2.52.689 5.142.744 7.565.101-.125 1.231-.13 2.237-1.398 2.884-1.008.513-2.251.692-3.373.577-2.145-.22-3.987-1.821-4.056-3.955zm5.354 5.198c1.051-.1 2.108-.415 2.96-.957a3.738 3.738 0 0 0 1.026-.967c-.247 1.131-.429 2.281-.629 3.41-.096.54-.186 1.08-.278 1.619-.57-.668-1.2-1.293-1.824-1.908a56.83 56.83 0 0 0-1.255-1.197zm-9.18 18.793c-1.526.005-3.053.013-4.58-.018a58.7 58.7 0 0 1-2.287-.081 21.776 21.776 0 0 1-1.143-.105c-.322-.036-.853.002-1.14-.156-.268-.147-.19-.36-.182-.67.01-.366.028-.732.043-1.098.034-.78.077-1.555.152-2.332.145-1.507.348-3 .6-4.494.254-1.5.495-3.134 1.128-4.534.606-1.34 1.685-2.255 2.856-3.12 1.842-1.36 3.703-2.734 5.51-4.159-.966 1.49-1.938 2.977-2.868 4.49-.358.581-1.424 1.77-.398 2.263.473.227 1.072.26 1.574.448.267.1.526.215.78.338-.477.275-.951.555-1.425.836-.804.476-1.69.912-2.428 1.483-.391.303-.521.655-.26 1.097.49.826 1.182 1.599 1.722 2.402 1.704 2.537 3.37 5.132 5.46 7.383-1.038.013-2.076.023-3.114.027zm-.785-7.174c-.483-.637-.976-1.268-1.445-1.915-.22-.302-.42-.694-.67-.977l.193-.11a76.022 76.022 0 0 0 4.477-2.489c.43-.256.451-.898 0-1.149a12.968 12.968 0 0 0-1.704-.794c-.394-.15-.857-.228-1.284-.352.066-.11.13-.222.197-.333.19-.314.38-.628.566-.945.417-.714.825-1.433 1.238-2.149.636-1.103 1.268-2.21 1.906-3.312.143 7.181.942 14.325 2.213 21.398-2.093-2.13-3.888-4.505-5.687-6.873zm4.831-7.546a.352.352 0 0 0 .198-.11c.356-.368.717-.732 1.082-1.092.313.751.619 1.507.968 2.242.148.312.276.555.428.735-.431 1.108-.727 2.29-1.075 3.416a79.208 79.208 0 0 0-.635 2.181 174.31 174.31 0 0 1-.966-7.372zm7.084 6.428c-.105-.383-.211-.766-.319-1.149-.326-1.155-.812-2.277-1.105-3.44a.821.821 0 0 0 .128-.169c.404-.71.69-1.596.94-2.412.32.381.64.76.98 1.121.074.08.16.126.25.152-.135.82-.268 1.64-.396 2.462a118.428 118.428 0 0 0-.478 3.435zm1.69-3.274c.248-1.866.517-3.729.805-5.589.195-1.261.434-2.532.597-3.806a25.144 25.144 0 0 0 1.872 3.98c.218.372.445.737.662 1.11.13.222.26.445.385.67.07.128.133.4.235.434-.298.19-.853.393-1.039.495a36.43 36.43 0 0 0-1.44.832c-.492.299-.34.933.15 1.122.736.285 1.414.717 2.101 1.1.13.073.961.423.982.547.036.21-.354.57-.473.729-.84 1.114-1.713 2.2-2.581 3.293-1.197 1.506-2.383 3.02-3.45 4.612.285-3.184.772-6.367 1.193-9.53zm12.79 10.717c-.06.303-.075.305-.392.334-.786.073-1.603.03-2.393.044a514.17 514.17 0 0 0-4.57.1c-2.091.056-4.181.113-6.271.167 1.568-2.478 3.409-4.77 5.22-7.08.473-.604.943-1.21 1.404-1.822.367-.49 1.01-1.104.873-1.774-.14-.687-.916-.936-1.479-1.22-.487-.247-.985-.481-1.469-.739.255-.12.51-.242.763-.367.421-.207.948-.379 1.29-.7.78-.734-.102-1.889-.535-2.558-.939-1.449-1.874-2.89-2.7-4.397 1.699 1.31 3.46 2.548 5.17 3.838 1.206.91 2.465 1.819 3.583 2.832 1.043.946 1.012 2.388 1.147 3.687.305 2.926.426 5.867.391 8.808-.003.274.02.575-.032.847zM26.214 3.327C24.289 1.037 21.35.477 18.482.206a37.706 37.706 0 0 0-4.019-.164C10.265-.168 6.05.338 2.826 3.3.94 5.03-.393 7.72.276 10.278c.66 2.524 3.086 4.16 5.505 4.883.826.247 1.679.408 2.535.516.436.055.873.104 1.31.139.337.027.802-.061 1.07.147.278.217.519.722.728 1.013.238.33.486.654.74.974.565.71 1.156 1.386 1.834 1.995.41.37.944.168 1.14-.295a5.796 5.796 0 0 0 .462-1.968 4.696 4.696 0 0 0-.043-.856c-.028-.21-.122-.413-.017-.61.116-.216.267-.202.507-.256 1.664-.37 3.369-.543 5.034-.914 2.55-.568 5.159-1.876 6.261-4.333 1.102-2.455.593-5.337-1.128-7.386zm-.445 7.268c-1.482 2.082-4.338 2.808-6.719 3.336-.851.189-1.711.351-2.552.58-.587.16-1.347.292-1.817.705-.458.403-.412.911-.334 1.455.077.53.056 1.039-.07 1.53-.682-.801-1.348-1.616-1.898-2.512-.295-.482-.531-1.002-1.061-1.28-.536-.28-1.232-.291-1.822-.341-2.569-.219-5.46-.59-7.14-2.744-1.642-2.103-.774-4.925.873-6.76 2.28-2.542 5.51-3.167 8.813-3.392a27.646 27.646 0 0 1 6.624.349c2.065.361 4.31.807 5.919 2.212 1.976 1.726 2.78 4.62 1.184 6.862z"/>
        <path d="M21.738 4.643c-5.254-.077-10.523.048-15.777.162-.38.009-.38.571 0 .58 5.254.114 10.523.239 15.777.161.594-.008.595-.894 0-.903zM21.738 7.24c-5.254-.078-10.523.047-15.777.161-.38.008-.38.57 0 .579 5.254.114 10.523.24 15.777.162.594-.009.595-.894 0-.903zM21.738 9.835c-5.254-.077-10.523.048-15.777.162-.38.008-.381.57 0 .579 5.254.114 10.523.239 15.777.162.594-.009.595-.894 0-.903z"/>
    </g>
</svg>
