<svg xmlns="http://www.w3.org/2000/svg" width="30" height="40" viewBox="0 0 30 40">
    <g fill="#000" fill-rule="nonzero">
        <path d="M10.585 11.74c1.188.008 1.727-.464 2.115-1.446.517-1.307.491-2.889.483-4.25-.005-.681-.354-1.66-1.16-1.9-1.605-.477-3.272-.03-4.908.002-.93.018-1.912.008-2.556.66-.128-.01-.408 4.643-.155 6.18.222 1.345 4.546.744 6.181.754zm-.364-.562c-1.035-.006-2.069.13-3.107.125-.605-.003-1.038-.13-1.356-.34.618-1.175 1.967-1.994 2.86-2.989 1.031.851 1.692 2.095 2.63 3.039-.271.11-.608.168-1.027.165zm2.051-1.66c-.088.49-.247.885-.526 1.166l-.007-.01c-1.005-.987-1.67-2.217-2.744-3.132.818-.955 1.728-2.046 2.844-2.625 1.185.922.705 3.103.433 4.6zM7.113 4.704c.976-.012 1.95-.168 2.926-.219.476-.024.869.022 1.192.123-1.063.646-1.903 1.652-2.699 2.57-1.06-.762-2.274-1.336-3.287-2.152-.013-.01-.027-.014-.041-.023.51-.353 1.317-.292 1.91-.299zm-2.28.735c1.022.819 2.22 1.435 3.31 2.179-.903.983-2.13 1.792-2.824 2.913-.369-.537-.64-4.078-.487-5.092zM16.074 4.693c2.532.052 5.08-.461 7.602-.149.39.048.559-.49.165-.539-2.584-.32-5.172.182-7.767.129-.398-.008-.398.55 0 .56zM20.65 5.916c-1.408.005-2.932.232-4.32-.02-.39-.072-.556.467-.165.538 1.087.199 2.18.075 3.284.072a73.336 73.336 0 0 0 4.559-.153c.395-.026.4-.586 0-.56-1.12.074-2.233.12-3.358.123zM16.204 8.262c-.399-.003-.4.556 0 .56 2.66.02 5.367-.1 8.02-.274.396-.026.4-.586.001-.56-2.652.175-5.36.295-8.02.274zM24.342 10.307c-.951-.224-6.534.488-8.045.18-.389-.08-.563.51-.166.54 2.909.218 6.498-.102 8.046-.181.399-.02.551-.449.165-.539zM24.337 15.101c-3.168-.055-16.07.931-19.42.577-.396-.041-.392.518 0 .56 3.152.333 16.065-.636 19.42-.578.4.007.4-.553 0-.559zM24.09 18.489c.4 0 .401-.56.002-.56-2.998.006-15.763.42-19.186.407-.399-.001-.4.558 0 .56 3.227.01 15.988-.401 19.185-.407zM24.133 23.98c-6.445.53-13.026.497-19.494.402-.4-.006-.4.553-.001.56 6.468.094 13.049.126 19.495-.403.394-.032.398-.592 0-.559zM23.762 27.786c.393-.037.399-.597.002-.56-3.041.288-16.002-.045-19.412.053-.397.012-.4.572 0 .56 3.21-.093 16.175.254 19.41-.053zM23.985 30.177c-3.016-.379-6.032.008-9.053-.043-.399-.007-.399.553 0 .56 2.96.05 5.93-.35 8.886.021.39.05.56-.49.167-.538zM6.683 21.696c1.338-.09 2.703-.06 4.044-.092.557-.013 2.168.3 2.632-.117.493-.443.096-1.732-.187-1.733-1.689-.01-6.452.078-8.138.052-.208-.002-.46.408-.47.522-.135 1.534.557 1.474 2.12 1.368zM5.181 20.37c1.645.027 7.282-.152 7.72-.197.099-.01.14.77.14.77.008.116-4.157.15-4.503.159-.719.019-1.439.008-2.155.056-.786.053-1.252-.028-1.202-.788z"/>
        <path d="M29.904 12.854c-.01-1.88-.11-3.777-.408-5.642-.237-1.503-.483-2.932-1.607-4.117a3.868 3.868 0 0 0-.967-.73 4.657 4.657 0 0 0-.45-.555C24.716-.03 21.304.278 18.928.332c-2.344.05-4.685.096-7.03.171C9.836.572 7.7.55 5.67.926 3.378 1.349 1.74 2.752.949 4.703.012 7.018.287 9.707.426 12.113c.21 3.697-.042 7.376-.114 11.076-.062 3.105-.243 6.747 1.152 9.668.394.826 1.003 1.422 1.739 1.846.179.106.37.201.565.286.006.019.01.041.025.06.123.18.21.368.265.56.25.874-.129 1.847-.689 2.557-.152.193.1.498.349.411.596-.203 1.2-.48 1.81-.776-.081.596-.37 1.18-.741 1.65-.152.193.101.498.349.412 2.054-.703 4.19-2.23 6.324-2.716 1.89-.429 9.944-.426 12.106-.564 1.775-.116 3.467-.265 4.876-1.338 1.27-.97 1.563-3.862 1.255-9.538-.236-4.283.232-8.567.207-12.853zm-25.56 24.91c.275-.534.431-1.124.4-1.703a2.347 2.347 0 0 0-.147-.756c0-.008-.003-.014-.006-.022l.018.006a3.086 3.086 0 0 0-.29-.479c-.12-.154-.296-.266-.46-.389l-.198-.101a4.284 4.284 0 0 1-.621-.4 3.097 3.097 0 0 1-.426-.404c-.77-.851-1.068-2.02-1.277-3.075-.81-4.101-.38-8.426-.227-12.562.106-2.867-.142-5.699-.178-8.563-.031-2.467.226-5.36 2.59-6.96C4.934 1.405 6.758 1.3 8.444 1.212c2.518-.137 5.042-.199 7.562-.258 2.75-.064 7.114-.78 9.556.899a3.972 3.972 0 0 1 1.05 1.06c1.032 1.56.998 3.887 1.135 5.599.177 2.215.137 4.445.075 6.666-.113 4.078-.275 8.114.045 12.19.08 1.016.1 2.04-.021 3.046.04-.008-.01 2.716-1.625 3.602-1.73.946-4.631.767-6.592.941-.907.078-7.228-.023-7.83.03-.462.075-.926.15-1.387.23-1.435.248-2.88 1.063-4.288 1.767-.196.095-.39.19-.582.279-.403.192-.803.365-1.198.502z"/>
    </g>
</svg>
