<svg xmlns="http://www.w3.org/2000/svg" width="30" height="28" viewBox="0 0 30 28">
    <path fill="#FFF" fill-rule="nonzero" d="M8.413 27.469l.083-.033.09-.007c.318-.02.606-.158.859-.411l5.713-5.713.407.372c.802.733 1.597 1.473 2.392 2.214 1.105 1.03 2.248 2.096 3.392 3.117.685.61 1.45.444 1.937.083.23-.127.35-.213.455-.317l4.99-4.99c.528-.529.458-1.083.307-1.454l-.053-.13.012-.137c.033-.395-.116-.758-.444-1.081-1.996-1.96-4.165-3.733-6.023-5.209l-.473-.375 1.753-2.04c.944-1.098 1.888-2.196 2.834-3.292.16-.186.267-.389.326-.619l.055-.137a1.511 1.511 0 0 0-.243-1.787l-.292-.293a1.471 1.471 0 0 0-.6-.355l-.114-.036-.09-.079C24.151 3.442 22.702 2.011 21.23.538c-.705-.704-1.425-.395-1.702-.23-.24.11-.39.212-.523.346L13.75 5.907l-.408-.39a237.966 237.966 0 0 0-1.914-1.806A148.819 148.819 0 0 1 8.379.804C7.684.116 6.972.406 6.697.563a1.639 1.639 0 0 0-.545.354L1.306 5.764c-.28.28-.418.6-.413.955l.002.159c.003.355.15.68.438.968 1.53 1.53 3.344 3.323 5.19 5.02l.446.408-5.777 5.777c-.646.647-.447 1.401-.046 1.893l.084.103.032.127c.064.257.195.482.4.687l5.27 5.27c.55.55 1.11.488 1.481.338zm1.858-13.279c.778-.778.275-1.596.103-1.829l-.05-.08a1.505 1.505 0 0 0-.346-.441c-1.893-1.677-3.662-3.4-4.992-4.714l-.414-.41L7.52 3.77l.408.387c.501.474 1.006.946 1.51 1.417.994.929 2.022 1.888 3.008 2.865.093.091.196.17.325.247l.07.042.057.06c.312.332.714.528 1.104.54.353.01.679-.131.968-.42l5.39-5.39.409.4a64.456 64.456 0 0 0 2.66 2.468l.433.38-1.72 1.998c-.942 1.098-1.885 2.194-2.83 3.289a1.62 1.62 0 0 0-.218.335l-.047.093-.078.069c-.339.3-.522.691-.495 1.042.022.295.19.567.5.81 2.513 1.97 4.594 3.658 6.575 5.497l.44.409-3.54 3.539-.407-.376c-.612-.563-1.22-1.131-1.829-1.699a191.601 191.601 0 0 0-3.648-3.346 1.858 1.858 0 0 0-.26-.19l-.11-.085c-.525-.52-1.356-.745-2.03-.07l-5.959 5.958-3.891-3.892 5.957-5.957z"/>
</svg>
