<svg xmlns="http://www.w3.org/2000/svg" width="24" height="15" viewBox="0 0 24 15">
    <g fill="#FFF" fill-rule="nonzero">
        <path d="M12.008 14.505c-4.267.04-7.86-1.493-10.676-4.716C.78 9.157.385 8.354.065 7.57c-.137-.337-.048-.963.192-1.226C3.604 2.678 7.544.117 12.721.188c4.77.065 8.18 2.453 10.449 6.531.863 1.553.674 2.306-.716 3.396-1.386 1.088-2.804 2.153-4.301 3.077-1.864 1.15-4.003 1.281-6.144 1.314zm-.417-1.401c4.533-.27 6.8-1.252 9.848-4.205.849-.822.898-1.212.276-2.228-1.078-1.76-2.497-3.14-4.404-3.996-3.106-1.394-6.236-1.344-9.369-.14-2.096.805-3.87 2.117-5.49 3.659-1.148 1.096-1.226 1.388-.2 2.616 2.465 2.952 5.845 3.928 9.338 4.294z"/>
        <path d="M16.391 7.502c-.056 2.296-1.27 3.97-3.293 4.589-2.256.689-4.377.05-5.616-1.784-1.008-1.494-1.072-4.745.747-6.083a14.986 14.986 0 0 1 3-1.698c1.254-.532 3.215.325 4.169 1.762.644.969 1.129 2.03.993 3.214zm-1.497.16c.017-2.114-1.442-3.822-3.251-3.81-1.664.012-3.406 1.967-3.384 3.799.021 1.759 1.646 3.4 3.377 3.41 1.887.01 3.242-1.403 3.258-3.399z"/>
    </g>
</svg>
