<svg xmlns="http://www.w3.org/2000/svg" width="26" height="40" viewBox="0 0 26 40">
    <g fill="#171749" fill-rule="nonzero">
        <path d="M25.672 30.312a.188.188 0 0 0-.076-.13c.028-.114-.046-.25-.19-.21-3.888 1.113-8.364.624-12.38.842 6.582-5.651 11.777-16.882 8.606-24.926C18.089-3.1 4.843-1.055 1.623 7.015c-.103.177-.187.365-.28.547-.115-.01-.23-.015-.345-.028-.134-.016-.167.224-.032.243.085.012.168.017.253.028C.643 8.997.266 10.283.169 11.62l-.001.018A9.624 9.624 0 0 0 .363 14.4c.022.1.14.112.207.063.03.071.083.131.186.133.91.02 1.817.024 2.725.088.896.063 1.815.268 2.71.233a.202.202 0 0 0 .168-.1c.103.012.201-.03.257-.16.011-.026 0-.047-.007-.07.766-.196 1.528-.406 2.293-.601.123-.032.189-.147.199-.268.108-1.3.288-2.677 1.575-3.283a.216.216 0 0 0 .089-.079c.343.195.654.448.903.784.04.055.072.11.107.166a.11.11 0 0 0 .04.06c.47.777.461 1.61.387 2.52-.007.095.051.159.123.2-.586 2.048-1.381 4.011-2.286 5.928l-.085.007c-.143.008-.15.206-.032.239-2.002 4.191-4.512 8.17-6.5 12.348-.041 0-.082.002-.123.001-.159 0-.158.246 0 .252l.067.001c.008.031.015.062.032.087-.004.013-.015.02-.016.035-.194 2.056-.27 4.277-.054 6.333.027.251.297.312.43.173.027.052.068.094.134.094 6.42-.043 12.705-.063 19.123.292a.258.258 0 0 0 .168-.047c.093.072.24.065.282-.054.056.122.254.175.36.03.352-.48.7-.961 1.045-1.445.257-.36.57-.72.763-1.127a.166.166 0 0 0 .168-.155 29.593 29.593 0 0 0-.129-6.766zM13.508.687c6.54.528 9.032 6.3 8.21 12.367-1.088 8.017-5.362 14.664-11.54 19.524-.072.057-.054.15-.001.194l-.173.006c3.71-5.07 7.954-10.111 9.555-16.374 1.092-4.271 1.01-9.95-2.563-13.055C13.067-.067 8.02.784 4.474 3.679 6.822 1.463 10.032.406 13.508.687zM8.578 13.51c-.667.224-1.335.44-2.001.664.008-.14.01-.281.02-.351.1-.683.275-1.339.623-1.939.655-1.13 1.516-1.502 2.646-1.888.101.025.198.063.297.096-1.186.679-1.484 2.08-1.586 3.418zM23.014 39.28c-6.221-.837-12.95-.958-19.17-.038-.005 0-.006.006-.012.008.025-.522.038-1.05.04-1.58.011.004.017.014.03.015 1.82.12 3.634.08 5.447-.106.157-.016.16-.27 0-.255a42.56 42.56 0 0 1-5.447.144c-.014 0-.02.01-.031.013a74.374 74.374 0 0 0-.151-4.452.257.257 0 0 0 .08-.084l.04-.071c1.396.033 2.784.005 4.178-.115.18-.016.185-.305 0-.294-1.339.082-2.68.128-4.02.136.442-.75.87-1.51 1.294-2.273.828 0 1.658-.014 2.484-.067.156-.01.159-.254 0-.252-.79.011-1.581.06-2.37.12.276-.497.537-1.002.807-1.501a34.248 34.248 0 0 0 2.196-.257c.121-.02.094-.229-.028-.22-.681.048-1.355.13-2.031.222.386-.717.765-1.437 1.146-2.156.013.005.02.016.037.016.766.004 1.536.03 2.301-.016.174-.01.177-.274 0-.28-.738-.022-1.478.023-2.216.051.403-.761.803-1.521 1.204-2.282a86.87 86.87 0 0 1 3.432-.217c.16-.008.16-.247 0-.255a14.796 14.796 0 0 0-3.302.225l.877-1.662c.272-.515.536-1.028.792-1.541.749-.015 1.504-.024 2.241-.124.152-.021.163-.246 0-.252-.694-.027-1.397.028-2.095.083.3-.613.582-1.23.84-1.853a21.796 21.796 0 0 1 1.615-.02c.123.002.157-.207.03-.226a6.025 6.025 0 0 0-1.544-.003c.222-.555.414-1.12.588-1.693.02.023.045.041.08.046.608.079 1.265.115 1.858-.07.14-.043.121-.281-.036-.27-.615.044-1.202.135-1.821.089-.01-.001-.013.006-.022.007.165-.566.3-1.144.405-1.735.517.01 1.036.036 1.552 0 .151-.011.152-.231 0-.242-.503-.035-1.007-.012-1.511-.001.051-.327.096-.656.124-.993.002-.02-.011-.033-.016-.05.004-.103-.012-.203-.018-.306.228-.04.45-.034.693-.027.12.003.138-.175.028-.21a1.335 1.335 0 0 0-.735-.003 3.16 3.16 0 0 0-.316-.982c.328.024.655.06.985.11.185.028.272-.245.08-.296a4.62 4.62 0 0 0-1.263-.138c-.506-.77-1.314-1.347-2.22-1.513a.175.175 0 0 0-.13-.088c-1.691-.26-3.158 1.424-3.648 2.918-.104.317-.417 1.378-.347 1.963-.01.006-.016.015-.025.022-1.605-.48-3.618-.394-5.238-.266a.224.224 0 0 0-.152.076c-.03-.284-.048-.567-.06-.85 1.04.018 2.078.04 3.117.02.169-.003.17-.265 0-.268-1.04-.02-2.08.002-3.12.02-.01-.464.008-.925.047-1.38.984.02 1.968.047 2.952.013.166-.006.167-.26 0-.266-.974-.033-1.948-.007-2.922.013.067-.64.184-1.266.343-1.877 2.076.134 4.134.166 6.21.036.174-.011.177-.283 0-.28-2.046.038-4.096.057-6.143.004.106-.371.224-.737.368-1.092.059-.001.118-.025.144-.097.044-.12.095-.232.142-.349 1.075.103 2.14.094 3.218-.092.118-.02.092-.226-.029-.216-1.029.088-2.058.117-3.085.052.129-.299.265-.591.41-.874.177-.284.372-.556.576-.822a34.76 34.76 0 0 0 4.762-.111c.148-.014.153-.25 0-.241a82.29 82.29 0 0 1-4.59.138A9.63 9.63 0 0 1 4.76 3.972c.017.05.051.091.11.083a37.686 37.686 0 0 1 4.48-.337c.193-.003.193-.307 0-.307a27.725 27.725 0 0 0-4.275.352 9.708 9.708 0 0 1 2.2-1.11c5.336-1.865 10.792.552 12.02 6.363C21.2 18.022 14.103 26.052 9.282 32.67c-.092.126-.072.25 0 .34.003.097.064.19.19.194 4.49.103 8.982.099 13.472.188.115 1.978.141 3.938.156 5.916-.027-.012-.053-.024-.085-.029zm2.38-2.494c-.409.33-.668.88-.954 1.318-.318.489-.634.98-.946 1.472.259-2.045.238-4.17-.007-6.214-.002-.015-.01-.026-.013-.04.185-.17.12-.57-.204-.58-4.315-.126-8.636-.17-12.95.026a18.376 18.376 0 0 0 2.457-1.746c-.015.122.047.25.204.249 3.845-.046 8.497.393 12.217-.87.162 2.12.256 4.229.276 6.354-.028.008-.057.012-.08.031z"/>
        <path d="M6.808 35.615c-.887-.023-1.775.017-2.663.038-.11.002-.11.409 0 .412.888.02 1.776.06 2.663.037.13-.004.13-.483 0-.487z"/>
    </g>
</svg>
