<svg xmlns="http://www.w3.org/2000/svg" width="40" height="40" viewBox="0 0 40 40">
    <g fill="#FFF" fill-rule="nonzero">
        <path d="M20.065 0C9.138 0 .265 8.874.265 19.734c0 3.443.927 6.754 2.649 9.8L0 39.997l10.661-2.847c3.113 1.655 6.358 2.582 9.404 2.582 10.794 0 19.932-9.138 19.932-19.998C39.997 8.874 31.057 0 20.065 0zm0 38.408c-2.914 0-6.026-.927-9.006-2.583l-.265-.132-8.94 2.45 2.45-8.807-.132-.265c-1.656-2.848-2.583-6.092-2.583-9.337 0-10.132 8.278-18.41 18.476-18.41 10.264 0 18.608 8.278 18.608 18.41 0 10.131-8.543 18.674-18.608 18.674z"/>
        <path d="M20.065 3.311c-9.072 0-16.49 7.35-16.49 16.423 0 3.244.928 6.29 2.583 9.006l.265.33-1.788 6.292 6.49-1.656.331.199c2.715 1.655 5.695 2.516 8.609 2.516 9.138 0 16.621-7.483 16.621-16.687 0-9.073-7.483-16.423-16.621-16.423zm-.066 31.852c-2.65 0-5.364-.86-7.88-2.384l-.795-.53-4.834 1.192 1.324-4.635-.53-.86C5.695 25.494 4.9 22.646 4.9 19.733c0-8.278 6.821-15.098 15.165-15.098 8.41 0 15.297 6.82 15.297 15.098 0 8.476-6.887 15.363-15.363 15.43z"/>
        <path d="M29.998 23.376l-4.172-1.92c-.596-.265-1.192-.067-1.59.397l-1.589 2.053c-1.192-.464-4.503-1.92-6.423-5.497l1.457-1.721c.331-.398.397-.928.199-1.391l-1.788-4.238c-.199-.464-.596-.795-1.126-.795l-1.258-.066c-.53 0-1.126.132-1.523.53-.596.53-1.722 1.655-2.053 3.178-.464 2.186.265 4.768 2.119 7.285 1.126 1.589 4.569 6.29 11.191 8.145a6.699 6.699 0 0 0 1.92.265c1.126 0 2.186-.331 3.113-.861 1.06-.662 1.788-1.788 2.053-2.98l.198-.927c.133-.596-.198-1.192-.728-1.457zm-.861 2.053c-.199.86-.728 1.655-1.457 2.119-1.126.728-2.45.86-3.907.463-6.158-1.722-9.403-6.158-10.463-7.615-1.589-2.185-2.251-4.437-1.854-6.225.265-1.192 1.126-2.053 1.656-2.516a.752.752 0 0 1 .53-.199l1.324.133 1.788 4.171-1.59 1.788c-.264.332-.33.861-.132 1.259 2.185 4.238 6.159 5.893 7.35 6.29.464.133.928 0 1.259-.397l1.589-2.119 4.172 1.92-.265.928z"/>
    </g>
</svg>
