<svg xmlns="http://www.w3.org/2000/svg" width="40" height="10" viewBox="0 0 40 10">
    <path fill="#FFF" fill-rule="nonzero" d="M24.36 2.849a3.632 3.632 0 0 0-1.67.427c0-1.488.023-2.78.058-3.276l-3.073.588v.277l.302.035c.429.057.591.311.65.876.092 1.096.08 6.944 0 7.878.858.202 1.737.31 2.62.323 2.434 0 3.907-1.5 3.907-3.876-.012-1.891-1.206-3.252-2.795-3.252zm-1.067 6.655a3.426 3.426 0 0 1-.522-.046c-.046-.658-.081-3.368-.07-5.733.231-.081.475-.12.72-.115 1.008 0 1.576 1.165 1.576 2.618-.011 1.869-.707 3.276-1.704 3.276zM8.128 2.918l-.476.127C7.223 1.661 6.562.877 5.322.877h-1.6c-.07.888-.105 2.364-.093 3.898l1.078-.035c.72-.023 1.009-.553 1.183-1.326h.406v3.253H5.89c-.174-.785-.476-1.315-1.194-1.338l-1.067-.035c.012 1.165.046 2.157.093 2.745.07.865.313 1.246.927 1.338l.545.058v.392H0v-.392l.429-.058c.614-.092.858-.473.928-1.338.115-1.43.139-4.394 0-6.055C1.287 1.13 1.043.75.429.657L0 .6V.22h8.081l.047 2.698zm2.585-.15c2.296 0 3.432 1.546 3.432 3.599s-1.287 3.621-3.583 3.621c-2.295 0-3.443-1.545-3.443-3.587 0-2.041 1.287-3.633 3.594-3.633zm-.116.438c-1.02 0-1.298 1.361-1.298 3.172 0 1.811.452 3.172 1.39 3.172.94 0 1.3-1.36 1.3-3.172 0-1.81-.464-3.16-1.403-3.16l.011-.012zM27.71 6.448c0-1.892 1.194-3.668 3.571-3.668 1.925 0 2.84 1.418 2.852 3.275h-4.301c-.046 1.684.811 2.93 2.458 2.93.719 0 1.113-.173 1.553-.507l.198.242c-.476.657-1.473 1.28-2.795 1.28-2.075-.012-3.536-1.465-3.536-3.552zm2.145-.866l2.157-.046c.011-.945-.14-2.306-.916-2.306-.777 0-1.23 1.28-1.253 2.34l.012.012zm9.797-.68l-.348.092c-.37-1.21-.939-1.718-1.774-1.718-.556 0-.95.415-.95 1.015 0 .6.452.91 1.75 1.407 1.299.496 1.67.992 1.67 1.96 0 1.442-1.113 2.33-2.945 2.33a7.257 7.257 0 0 1-2.423-.426l-.058-1.996.348-.092c.498 1.396 1.16 1.903 2.029 1.903.87 0 1.148-.519 1.148-1.073 0-.553-.313-.865-1.485-1.28-1.17-.415-1.878-.865-1.878-2.076s1.044-2.18 2.771-2.18c.8 0 1.565.139 2.076.37l.07 1.764zm-20.266-.058c-.928-.623-1.937-.346-2.134-.011a30.35 30.35 0 0 0 .023 3.69c.047.566.22.82.65.877l.556.035v.392h-4.278v-.392l.301-.035c.43-.057.592-.311.65-.876.09-1.325.09-2.655 0-3.98-.047-.565-.22-.819-.65-.876l-.301-.035v-.277l3.072-.588-.034 1.592c.718-1.638 2.133-1.857 2.898-1.396l-.753 1.88z"/>
</svg>
